{
  "public": "_site",
  "redirects": [
    {
      "source": "/",
      "destination": "/harmonisasi"
    }
  ],
  "rewrites": [
    {
      "source": "/**",
      "destination": "/harmonisasi/index.html"
    }
  ]
}
